List Columns and Bootstrapping
…
weather_nest

## # A tibble: 3 x 3
##             name          id               data
##            <chr>       <chr>             <list>
## 1 CentralPark_NY USW00094728 <tibble [366 x 4]>
## 2     Waikiki_HA USC00519397 <tibble [366 x 4]>
## 3   Waterhole_WA USS0023B17S <tibble [366 x 4]>

weather_nest$data

## [[1]]
## # A tibble: 366 x 4
##          date  prcp  tmax  tmin
##        <date> <dbl> <dbl> <dbl>
##  1 2016-01-01     0   5.6   1.1
##  2 2016-01-02     0   4.4   0.0
##  3 2016-01-03     0   7.2   1.7
##  4 2016-01-04     0   2.2  -9.9
##  5 2016-01-05     0  -1.6 -11.6
##  6 2016-01-06     0   5.0  -3.8
##  7 2016-01-07     0   7.8  -0.5
##  8 2016-01-08     0   7.8  -0.5
##  9 2016-01-09     0   8.3   4.4
## 10 2016-01-10   457  15.0   4.4
## # ... with 356 more rows
## 
## [[2]]
## # A tibble: 366 x 4
##          date  prcp  tmax  tmin
##        <date> <dbl> <dbl> <dbl>
##  1 2016-01-01     0  29.4  16.7
##  2 2016-01-02     0  28.3  16.7
##  3 2016-01-03     0  28.3  16.7
##  4 2016-01-04     0  28.3  16.1
##  5 2016-01-05     0  27.2  16.7
##  6 2016-01-06     0  27.2  20.0
##  7 2016-01-07    46  27.8  18.3
##  8 2016-01-08     3  28.3  17.8
##  9 2016-01-09     8  27.8  19.4
## 10 2016-01-10     3  28.3  18.3
## # ... with 356 more rows
## 
## [[3]]
## # A tibble: 366 x 4
##          date  prcp  tmax  tmin
##        <date> <dbl> <dbl> <dbl>
##  1 2016-01-01     0   1.7  -5.9
##  2 2016-01-02    25  -0.1  -6.0
##  3 2016-01-03     0  -5.0 -10.0
##  4 2016-01-04    25   0.3  -9.8
##  5 2016-01-05    25   1.9  -1.8
##  6 2016-01-06    25   1.4  -2.6
##  7 2016-01-07     0   1.4  -3.9
##  8 2016-01-08     0   1.1  -4.0
##  9 2016-01-09     0   1.4  -4.5
## 10 2016-01-10     0   2.3  -3.8
## # ... with 356 more rows

weather_nest$data[[1]]

## # A tibble: 366 x 4
##          date  prcp  tmax  tmin
##        <date> <dbl> <dbl> <dbl>
##  1 2016-01-01     0   5.6   1.1
##  2 2016-01-02     0   4.4   0.0
##  3 2016-01-03     0   7.2   1.7
##  4 2016-01-04     0   2.2  -9.9
##  5 2016-01-05     0  -1.6 -11.6
##  6 2016-01-06     0   5.0  -3.8
##  7 2016-01-07     0   7.8  -0.5
##  8 2016-01-08     0   7.8  -0.5
##  9 2016-01-09     0   8.3   4.4
## 10 2016-01-10   457  15.0   4.4
## # ... with 356 more rows
…
Draw a sample

boot_sample = function(df) {
  sample_frac(df, replace = TRUE)
}

boot_sample(sim_df_nonconst)

## # A tibble: 250 x 3
##              x       error          y
##          <dbl>       <dbl>      <dbl>
##  1  1.33087649 -1.52057755  4.4720519
##  2  0.69118694  0.63736907  4.7109299
##  3  0.16967735  0.30451734  2.8135494
##  4 -0.06262279  0.02647935  1.8386110
##  5 -0.96325249 -0.24764635 -1.1374038
##  6  1.71289428 -2.57029515  4.5683877
##  7  2.12795361  3.21121251 11.5950734
##  8  1.65522764  1.58117805  8.5468610
##  9 -0.70365949 -0.24969978 -0.3606783
## 10 -0.70365949 -0.24969978 -0.3606783
## # ... with 240 more rows

Draw lots of samples 

boot_straps = data_frame(
  strap_number = 1:1000,
  strap_sample = rerun(1000, boot_sample(sim_df_nonconst))
)

boot_straps

## # A tibble: 1,000 x 2
##    strap_number       strap_sample
##           <int>             <list>
##  1            1 <tibble [250 x 3]>
##  2            2 <tibble [250 x 3]>
##  3            3 <tibble [250 x 3]>
##  4            4 <tibble [250 x 3]>
##  5            5 <tibble [250 x 3]>
##  6            6 <tibble [250 x 3]>
##  7            7 <tibble [250 x 3]>
##  8            8 <tibble [250 x 3]>
##  9            9 <tibble [250 x 3]>
## 10           10 <tibble [250 x 3]>
## # ... with 990 more rows
…
